
    0.00389    0.00023    0.00000    0.00001    0.00001 0.00012    0.00002    0.00000    0.00032    0.00003
    0.00009    0.00385    0.00031    0.00006    0.00000 0.00000    0.00000    0.00000    0.00010    0.00001
    0.00000    0.00013    0.00292    0.00046    0.00002 0.00000    0.00000    0.00002    0.00013    0.00000
    0.00000    0.00001    0.00011    0.00083    0.00010 0.00003    0.00001    0.00000    0.00001    0.00000
    0.00000    0.00000    0.00001    0.00022    0.00231 0.00000    0.00009    0.00004    0.00002    0.00000
    0.00019    0.00000    0.00000    0.00038    0.00002 0.00596    0.00016    0.00000    0.00001    0.00007
    0.00001    0.00000    0.00000    0.00019    0.00070 0.00015    0.00666    0.00000    0.00000    0.00000
    0.00000    0.00000    0.00004    0.00013    0.00018 0.00000    0.00001    0.00650    0.00001    0.00002
    0.00010    0.00009    0.00013    0.00001    0.00007 0.00000    0.00000    0.00000    0.00248    0.00001
    0.00012    0.00001    0.00000    0.00000    0.00000 0.00004    0.00000    0.00000    0.00005    0.00602


